G04 #@! TF.GenerationSoftware,KiCad,Pcbnew,5.1.6~rc1+dfsg1-1*
G04 #@! TF.CreationDate,2020-11-03T15:04:55+05:30*
G04 #@! TF.ProjectId,Ultrasonic_Level_Sensor,556c7472-6173-46f6-9e69-635f4c657665,rev?*
G04 #@! TF.SameCoordinates,Original*
G04 #@! TF.FileFunction,Paste,Bot*
G04 #@! TF.FilePolarity,Positive*
%FSLAX46Y46*%
G04 Gerber Fmt 4.6, Leading zero omitted, Abs format (unit mm)*
G04 Created by KiCad (PCBNEW 5.1.6~rc1+dfsg1-1) date 2020-11-03 15:04:55*
%MOMM*%
%LPD*%
G01*
G04 APERTURE LIST*
G04 APERTURE END LIST*
M02*
