G04 #@! TF.GenerationSoftware,KiCad,Pcbnew,5.1.6~rc1+dfsg1-1*
G04 #@! TF.CreationDate,2020-11-03T15:04:55+05:30*
G04 #@! TF.ProjectId,Ultrasonic_Level_Sensor,556c7472-6173-46f6-9e69-635f4c657665,rev?*
G04 #@! TF.SameCoordinates,Original*
G04 #@! TF.FileFunction,Soldermask,Bot*
G04 #@! TF.FilePolarity,Negative*
%FSLAX46Y46*%
G04 Gerber Fmt 4.6, Leading zero omitted, Abs format (unit mm)*
G04 Created by KiCad (PCBNEW 5.1.6~rc1+dfsg1-1) date 2020-11-03 15:04:55*
%MOMM*%
%LPD*%
G01*
G04 APERTURE LIST*
%ADD10C,0.100000*%
G04 APERTURE END LIST*
D10*
G36*
X153253518Y-115688767D02*
G01*
X153419964Y-115757711D01*
X153569762Y-115857803D01*
X153697157Y-115985198D01*
X153797249Y-116134996D01*
X153866193Y-116301442D01*
X153901340Y-116478138D01*
X153901340Y-116658302D01*
X153866193Y-116834998D01*
X153797249Y-117001444D01*
X153697157Y-117151242D01*
X153569762Y-117278637D01*
X153419964Y-117378729D01*
X153253518Y-117447673D01*
X153076822Y-117482820D01*
X152896658Y-117482820D01*
X152719962Y-117447673D01*
X152553516Y-117378729D01*
X152403718Y-117278637D01*
X152276323Y-117151242D01*
X152176231Y-117001444D01*
X152107287Y-116834998D01*
X152072140Y-116658302D01*
X152072140Y-116478138D01*
X152107287Y-116301442D01*
X152176231Y-116134996D01*
X152276323Y-115985198D01*
X152403718Y-115857803D01*
X152553516Y-115757711D01*
X152719962Y-115688767D01*
X152896658Y-115653620D01*
X153076822Y-115653620D01*
X153253518Y-115688767D01*
G37*
G36*
X155793518Y-115688767D02*
G01*
X155959964Y-115757711D01*
X156109762Y-115857803D01*
X156237157Y-115985198D01*
X156337249Y-116134996D01*
X156406193Y-116301442D01*
X156441340Y-116478138D01*
X156441340Y-116658302D01*
X156406193Y-116834998D01*
X156337249Y-117001444D01*
X156237157Y-117151242D01*
X156109762Y-117278637D01*
X155959964Y-117378729D01*
X155793518Y-117447673D01*
X155616822Y-117482820D01*
X155436658Y-117482820D01*
X155259962Y-117447673D01*
X155093516Y-117378729D01*
X154943718Y-117278637D01*
X154816323Y-117151242D01*
X154716231Y-117001444D01*
X154647287Y-116834998D01*
X154612140Y-116658302D01*
X154612140Y-116478138D01*
X154647287Y-116301442D01*
X154716231Y-116134996D01*
X154816323Y-115985198D01*
X154943718Y-115857803D01*
X155093516Y-115757711D01*
X155259962Y-115688767D01*
X155436658Y-115653620D01*
X155616822Y-115653620D01*
X155793518Y-115688767D01*
G37*
G36*
X158333518Y-115688767D02*
G01*
X158499964Y-115757711D01*
X158649762Y-115857803D01*
X158777157Y-115985198D01*
X158877249Y-116134996D01*
X158946193Y-116301442D01*
X158981340Y-116478138D01*
X158981340Y-116658302D01*
X158946193Y-116834998D01*
X158877249Y-117001444D01*
X158777157Y-117151242D01*
X158649762Y-117278637D01*
X158499964Y-117378729D01*
X158333518Y-117447673D01*
X158156822Y-117482820D01*
X157976658Y-117482820D01*
X157799962Y-117447673D01*
X157633516Y-117378729D01*
X157483718Y-117278637D01*
X157356323Y-117151242D01*
X157256231Y-117001444D01*
X157187287Y-116834998D01*
X157152140Y-116658302D01*
X157152140Y-116478138D01*
X157187287Y-116301442D01*
X157256231Y-116134996D01*
X157356323Y-115985198D01*
X157483718Y-115857803D01*
X157633516Y-115757711D01*
X157799962Y-115688767D01*
X157976658Y-115653620D01*
X158156822Y-115653620D01*
X158333518Y-115688767D01*
G37*
G36*
X150713518Y-115688767D02*
G01*
X150879964Y-115757711D01*
X151029762Y-115857803D01*
X151157157Y-115985198D01*
X151257249Y-116134996D01*
X151326193Y-116301442D01*
X151361340Y-116478138D01*
X151361340Y-116658302D01*
X151326193Y-116834998D01*
X151257249Y-117001444D01*
X151157157Y-117151242D01*
X151029762Y-117278637D01*
X150879964Y-117378729D01*
X150713518Y-117447673D01*
X150536822Y-117482820D01*
X150356658Y-117482820D01*
X150179962Y-117447673D01*
X150013516Y-117378729D01*
X149863718Y-117278637D01*
X149736323Y-117151242D01*
X149636231Y-117001444D01*
X149567287Y-116834998D01*
X149532140Y-116658302D01*
X149532140Y-116478138D01*
X149567287Y-116301442D01*
X149636231Y-116134996D01*
X149736323Y-115985198D01*
X149863718Y-115857803D01*
X150013516Y-115757711D01*
X150179962Y-115688767D01*
X150356658Y-115653620D01*
X150536822Y-115653620D01*
X150713518Y-115688767D01*
G37*
G36*
X148173518Y-115688767D02*
G01*
X148339964Y-115757711D01*
X148489762Y-115857803D01*
X148617157Y-115985198D01*
X148717249Y-116134996D01*
X148786193Y-116301442D01*
X148821340Y-116478138D01*
X148821340Y-116658302D01*
X148786193Y-116834998D01*
X148717249Y-117001444D01*
X148617157Y-117151242D01*
X148489762Y-117278637D01*
X148339964Y-117378729D01*
X148173518Y-117447673D01*
X147996822Y-117482820D01*
X147816658Y-117482820D01*
X147639962Y-117447673D01*
X147473516Y-117378729D01*
X147323718Y-117278637D01*
X147196323Y-117151242D01*
X147096231Y-117001444D01*
X147027287Y-116834998D01*
X146992140Y-116658302D01*
X146992140Y-116478138D01*
X147027287Y-116301442D01*
X147096231Y-116134996D01*
X147196323Y-115985198D01*
X147323718Y-115857803D01*
X147473516Y-115757711D01*
X147639962Y-115688767D01*
X147816658Y-115653620D01*
X147996822Y-115653620D01*
X148173518Y-115688767D01*
G37*
G36*
X134158747Y-113437616D02*
G01*
X134395513Y-113535688D01*
X134395515Y-113535689D01*
X134484273Y-113594995D01*
X134608599Y-113678067D01*
X134789813Y-113859281D01*
X134932192Y-114072367D01*
X135030264Y-114309133D01*
X135080260Y-114560481D01*
X135080260Y-114816759D01*
X135030264Y-115068107D01*
X134932192Y-115304873D01*
X134932191Y-115304875D01*
X134789813Y-115517959D01*
X134608599Y-115699173D01*
X134395515Y-115841551D01*
X134395514Y-115841552D01*
X134395513Y-115841552D01*
X134158747Y-115939624D01*
X133907399Y-115989620D01*
X133651121Y-115989620D01*
X133399773Y-115939624D01*
X133163007Y-115841552D01*
X133163006Y-115841552D01*
X133163005Y-115841551D01*
X132949921Y-115699173D01*
X132768707Y-115517959D01*
X132626329Y-115304875D01*
X132626328Y-115304873D01*
X132528256Y-115068107D01*
X132478260Y-114816759D01*
X132478260Y-114560481D01*
X132528256Y-114309133D01*
X132626328Y-114072367D01*
X132768707Y-113859281D01*
X132949921Y-113678067D01*
X133074247Y-113594995D01*
X133163005Y-113535689D01*
X133163007Y-113535688D01*
X133399773Y-113437616D01*
X133651121Y-113387620D01*
X133907399Y-113387620D01*
X134158747Y-113437616D01*
G37*
G36*
X150713518Y-113148767D02*
G01*
X150879964Y-113217711D01*
X151029762Y-113317803D01*
X151157157Y-113445198D01*
X151257249Y-113594996D01*
X151326193Y-113761442D01*
X151361340Y-113938138D01*
X151361340Y-114118302D01*
X151326193Y-114294998D01*
X151257249Y-114461444D01*
X151157157Y-114611242D01*
X151029762Y-114738637D01*
X150879964Y-114838729D01*
X150713518Y-114907673D01*
X150536822Y-114942820D01*
X150356658Y-114942820D01*
X150179962Y-114907673D01*
X150013516Y-114838729D01*
X149863718Y-114738637D01*
X149736323Y-114611242D01*
X149636231Y-114461444D01*
X149567287Y-114294998D01*
X149532140Y-114118302D01*
X149532140Y-113938138D01*
X149567287Y-113761442D01*
X149636231Y-113594996D01*
X149736323Y-113445198D01*
X149863718Y-113317803D01*
X150013516Y-113217711D01*
X150179962Y-113148767D01*
X150356658Y-113113620D01*
X150536822Y-113113620D01*
X150713518Y-113148767D01*
G37*
G36*
X158981340Y-114942820D02*
G01*
X157152140Y-114942820D01*
X157152140Y-113113620D01*
X158981340Y-113113620D01*
X158981340Y-114942820D01*
G37*
G36*
X155793518Y-113148767D02*
G01*
X155959964Y-113217711D01*
X156109762Y-113317803D01*
X156237157Y-113445198D01*
X156337249Y-113594996D01*
X156406193Y-113761442D01*
X156441340Y-113938138D01*
X156441340Y-114118302D01*
X156406193Y-114294998D01*
X156337249Y-114461444D01*
X156237157Y-114611242D01*
X156109762Y-114738637D01*
X155959964Y-114838729D01*
X155793518Y-114907673D01*
X155616822Y-114942820D01*
X155436658Y-114942820D01*
X155259962Y-114907673D01*
X155093516Y-114838729D01*
X154943718Y-114738637D01*
X154816323Y-114611242D01*
X154716231Y-114461444D01*
X154647287Y-114294998D01*
X154612140Y-114118302D01*
X154612140Y-113938138D01*
X154647287Y-113761442D01*
X154716231Y-113594996D01*
X154816323Y-113445198D01*
X154943718Y-113317803D01*
X155093516Y-113217711D01*
X155259962Y-113148767D01*
X155436658Y-113113620D01*
X155616822Y-113113620D01*
X155793518Y-113148767D01*
G37*
G36*
X153253518Y-113148767D02*
G01*
X153419964Y-113217711D01*
X153569762Y-113317803D01*
X153697157Y-113445198D01*
X153797249Y-113594996D01*
X153866193Y-113761442D01*
X153901340Y-113938138D01*
X153901340Y-114118302D01*
X153866193Y-114294998D01*
X153797249Y-114461444D01*
X153697157Y-114611242D01*
X153569762Y-114738637D01*
X153419964Y-114838729D01*
X153253518Y-114907673D01*
X153076822Y-114942820D01*
X152896658Y-114942820D01*
X152719962Y-114907673D01*
X152553516Y-114838729D01*
X152403718Y-114738637D01*
X152276323Y-114611242D01*
X152176231Y-114461444D01*
X152107287Y-114294998D01*
X152072140Y-114118302D01*
X152072140Y-113938138D01*
X152107287Y-113761442D01*
X152176231Y-113594996D01*
X152276323Y-113445198D01*
X152403718Y-113317803D01*
X152553516Y-113217711D01*
X152719962Y-113148767D01*
X152896658Y-113113620D01*
X153076822Y-113113620D01*
X153253518Y-113148767D01*
G37*
G36*
X148173518Y-113148767D02*
G01*
X148339964Y-113217711D01*
X148489762Y-113317803D01*
X148617157Y-113445198D01*
X148717249Y-113594996D01*
X148786193Y-113761442D01*
X148821340Y-113938138D01*
X148821340Y-114118302D01*
X148786193Y-114294998D01*
X148717249Y-114461444D01*
X148617157Y-114611242D01*
X148489762Y-114738637D01*
X148339964Y-114838729D01*
X148173518Y-114907673D01*
X147996822Y-114942820D01*
X147816658Y-114942820D01*
X147639962Y-114907673D01*
X147473516Y-114838729D01*
X147323718Y-114738637D01*
X147196323Y-114611242D01*
X147096231Y-114461444D01*
X147027287Y-114294998D01*
X146992140Y-114118302D01*
X146992140Y-113938138D01*
X147027287Y-113761442D01*
X147096231Y-113594996D01*
X147196323Y-113445198D01*
X147323718Y-113317803D01*
X147473516Y-113217711D01*
X147639962Y-113148767D01*
X147816658Y-113113620D01*
X147996822Y-113113620D01*
X148173518Y-113148767D01*
G37*
G36*
X177023787Y-108438896D02*
G01*
X177260553Y-108536968D01*
X177260555Y-108536969D01*
X177473639Y-108679347D01*
X177654853Y-108860561D01*
X177795440Y-109070964D01*
X177797232Y-109073647D01*
X177895304Y-109310413D01*
X177945300Y-109561761D01*
X177945300Y-109818039D01*
X177895304Y-110069387D01*
X177797232Y-110306153D01*
X177797231Y-110306155D01*
X177654853Y-110519239D01*
X177473639Y-110700453D01*
X177260555Y-110842831D01*
X177260554Y-110842832D01*
X177260553Y-110842832D01*
X177023787Y-110940904D01*
X176772439Y-110990900D01*
X176516161Y-110990900D01*
X176264813Y-110940904D01*
X176028047Y-110842832D01*
X176028046Y-110842832D01*
X176028045Y-110842831D01*
X175814961Y-110700453D01*
X175633747Y-110519239D01*
X175491369Y-110306155D01*
X175491368Y-110306153D01*
X175393296Y-110069387D01*
X175343300Y-109818039D01*
X175343300Y-109561761D01*
X175393296Y-109310413D01*
X175491368Y-109073647D01*
X175493161Y-109070964D01*
X175633747Y-108860561D01*
X175814961Y-108679347D01*
X176028045Y-108536969D01*
X176028047Y-108536968D01*
X176264813Y-108438896D01*
X176516161Y-108388900D01*
X176772439Y-108388900D01*
X177023787Y-108438896D01*
G37*
G36*
X128517290Y-108136617D02*
G01*
X128635764Y-108185691D01*
X128645942Y-108192492D01*
X128742388Y-108256935D01*
X128833065Y-108347612D01*
X128904310Y-108454238D01*
X128953383Y-108572710D01*
X128978400Y-108698481D01*
X128978400Y-108826719D01*
X128953383Y-108952490D01*
X128904309Y-109070964D01*
X128833065Y-109177588D01*
X128742388Y-109268265D01*
X128635764Y-109339509D01*
X128635763Y-109339510D01*
X128635762Y-109339510D01*
X128517290Y-109388583D01*
X128391519Y-109413600D01*
X128263281Y-109413600D01*
X128137510Y-109388583D01*
X128019038Y-109339510D01*
X128019037Y-109339510D01*
X128019036Y-109339509D01*
X127912412Y-109268265D01*
X127821735Y-109177588D01*
X127750491Y-109070964D01*
X127701417Y-108952490D01*
X127676400Y-108826719D01*
X127676400Y-108698481D01*
X127701417Y-108572710D01*
X127750490Y-108454238D01*
X127821735Y-108347612D01*
X127912412Y-108256935D01*
X128008858Y-108192492D01*
X128019036Y-108185691D01*
X128137510Y-108136617D01*
X128263281Y-108111600D01*
X128391519Y-108111600D01*
X128517290Y-108136617D01*
G37*
G36*
X143796320Y-108830680D02*
G01*
X141994320Y-108830680D01*
X141994320Y-107028680D01*
X143796320Y-107028680D01*
X143796320Y-108830680D01*
G37*
G36*
X145548832Y-107033607D02*
G01*
X145698132Y-107063304D01*
X145862104Y-107131224D01*
X146009674Y-107229827D01*
X146135173Y-107355326D01*
X146233776Y-107502896D01*
X146301696Y-107666868D01*
X146336320Y-107840939D01*
X146336320Y-108018421D01*
X146301696Y-108192492D01*
X146233776Y-108356464D01*
X146135173Y-108504034D01*
X146009674Y-108629533D01*
X145862104Y-108728136D01*
X145698132Y-108796056D01*
X145548832Y-108825753D01*
X145524062Y-108830680D01*
X145346578Y-108830680D01*
X145321808Y-108825753D01*
X145172508Y-108796056D01*
X145008536Y-108728136D01*
X144860966Y-108629533D01*
X144735467Y-108504034D01*
X144636864Y-108356464D01*
X144568944Y-108192492D01*
X144534320Y-108018421D01*
X144534320Y-107840939D01*
X144568944Y-107666868D01*
X144636864Y-107502896D01*
X144735467Y-107355326D01*
X144860966Y-107229827D01*
X145008536Y-107131224D01*
X145172508Y-107063304D01*
X145321808Y-107033607D01*
X145346578Y-107028680D01*
X145524062Y-107028680D01*
X145548832Y-107033607D01*
G37*
G36*
X131236000Y-106265589D02*
G01*
X131269052Y-106275615D01*
X131299503Y-106291892D01*
X131326199Y-106313801D01*
X131348108Y-106340497D01*
X131364385Y-106370948D01*
X131374411Y-106404000D01*
X131378400Y-106444503D01*
X131378400Y-107880697D01*
X131374411Y-107921200D01*
X131364385Y-107954252D01*
X131348108Y-107984703D01*
X131326199Y-108011399D01*
X131299503Y-108033308D01*
X131269052Y-108049585D01*
X131236000Y-108059611D01*
X131195497Y-108063600D01*
X129459303Y-108063600D01*
X129418800Y-108059611D01*
X129385748Y-108049585D01*
X129355297Y-108033308D01*
X129328601Y-108011399D01*
X129306692Y-107984703D01*
X129290415Y-107954252D01*
X129280389Y-107921200D01*
X129276400Y-107880697D01*
X129276400Y-106444503D01*
X129280389Y-106404000D01*
X129290415Y-106370948D01*
X129306692Y-106340497D01*
X129328601Y-106313801D01*
X129355297Y-106291892D01*
X129385748Y-106275615D01*
X129418800Y-106265589D01*
X129459303Y-106261600D01*
X131195497Y-106261600D01*
X131236000Y-106265589D01*
G37*
G36*
X130587842Y-103768118D02*
G01*
X130654027Y-103774637D01*
X130823866Y-103826157D01*
X130980391Y-103909822D01*
X131016129Y-103939152D01*
X131117586Y-104022414D01*
X131200848Y-104123871D01*
X131230178Y-104159609D01*
X131230179Y-104159611D01*
X131292774Y-104276716D01*
X131313843Y-104316134D01*
X131365363Y-104485973D01*
X131382759Y-104662600D01*
X131365363Y-104839227D01*
X131313843Y-105009066D01*
X131230178Y-105165591D01*
X131200848Y-105201329D01*
X131117586Y-105302786D01*
X131016129Y-105386048D01*
X130980391Y-105415378D01*
X130823866Y-105499043D01*
X130654027Y-105550563D01*
X130587843Y-105557081D01*
X130521660Y-105563600D01*
X130133140Y-105563600D01*
X130066958Y-105557082D01*
X130000773Y-105550563D01*
X129830934Y-105499043D01*
X129674409Y-105415378D01*
X129638671Y-105386048D01*
X129537214Y-105302786D01*
X129453952Y-105201329D01*
X129424622Y-105165591D01*
X129340957Y-105009066D01*
X129289437Y-104839227D01*
X129272041Y-104662600D01*
X129289437Y-104485973D01*
X129340957Y-104316134D01*
X129362027Y-104276716D01*
X129424621Y-104159611D01*
X129424622Y-104159609D01*
X129453952Y-104123871D01*
X129537214Y-104022414D01*
X129638671Y-103939152D01*
X129674409Y-103909822D01*
X129830934Y-103826157D01*
X130000773Y-103774637D01*
X130066958Y-103768118D01*
X130133140Y-103761600D01*
X130521660Y-103761600D01*
X130587842Y-103768118D01*
G37*
G36*
X163239298Y-102834800D02*
G01*
X163320080Y-102859305D01*
X163362016Y-102872026D01*
X163475105Y-102932474D01*
X163574234Y-103013826D01*
X163655586Y-103112955D01*
X163716034Y-103226044D01*
X163716035Y-103226048D01*
X163753260Y-103348762D01*
X163762680Y-103444407D01*
X163762680Y-104058353D01*
X163753260Y-104153998D01*
X163751557Y-104159611D01*
X163716034Y-104276716D01*
X163655586Y-104389805D01*
X163574234Y-104488933D01*
X163475104Y-104570286D01*
X163362015Y-104630734D01*
X163330083Y-104640420D01*
X163239297Y-104667960D01*
X163111680Y-104680529D01*
X162984062Y-104667960D01*
X162893276Y-104640420D01*
X162861344Y-104630734D01*
X162748255Y-104570286D01*
X162649127Y-104488934D01*
X162567774Y-104389804D01*
X162507326Y-104276715D01*
X162497640Y-104244783D01*
X162470100Y-104153997D01*
X162460680Y-104058352D01*
X162460680Y-103444407D01*
X162470100Y-103348762D01*
X162507325Y-103226048D01*
X162507325Y-103226047D01*
X162539637Y-103165597D01*
X162567775Y-103112954D01*
X162581173Y-103096629D01*
X162649127Y-103013826D01*
X162748256Y-102932474D01*
X162861345Y-102872026D01*
X162903281Y-102859305D01*
X162984063Y-102834800D01*
X163111680Y-102822231D01*
X163239298Y-102834800D01*
G37*
G36*
X161239298Y-102834800D02*
G01*
X161320080Y-102859305D01*
X161362016Y-102872026D01*
X161475105Y-102932474D01*
X161574234Y-103013826D01*
X161655586Y-103112955D01*
X161716034Y-103226044D01*
X161716035Y-103226048D01*
X161753260Y-103348762D01*
X161762680Y-103444407D01*
X161762680Y-104058353D01*
X161753260Y-104153998D01*
X161751557Y-104159611D01*
X161716034Y-104276716D01*
X161655586Y-104389805D01*
X161574234Y-104488933D01*
X161475104Y-104570286D01*
X161362015Y-104630734D01*
X161330083Y-104640420D01*
X161239297Y-104667960D01*
X161111680Y-104680529D01*
X160984062Y-104667960D01*
X160893276Y-104640420D01*
X160861344Y-104630734D01*
X160748255Y-104570286D01*
X160649127Y-104488934D01*
X160567774Y-104389804D01*
X160507326Y-104276715D01*
X160497640Y-104244783D01*
X160470100Y-104153997D01*
X160460680Y-104058352D01*
X160460680Y-103444407D01*
X160470100Y-103348762D01*
X160507325Y-103226048D01*
X160507325Y-103226047D01*
X160539637Y-103165597D01*
X160567775Y-103112954D01*
X160581173Y-103096629D01*
X160649127Y-103013826D01*
X160748256Y-102932474D01*
X160861345Y-102872026D01*
X160903281Y-102859305D01*
X160984063Y-102834800D01*
X161111680Y-102822231D01*
X161239298Y-102834800D01*
G37*
G36*
X165239298Y-102834800D02*
G01*
X165320080Y-102859305D01*
X165362016Y-102872026D01*
X165475105Y-102932474D01*
X165574234Y-103013826D01*
X165655586Y-103112955D01*
X165716034Y-103226044D01*
X165716035Y-103226048D01*
X165753260Y-103348762D01*
X165762680Y-103444407D01*
X165762680Y-104058353D01*
X165753260Y-104153998D01*
X165751557Y-104159611D01*
X165716034Y-104276716D01*
X165655586Y-104389805D01*
X165574234Y-104488933D01*
X165475104Y-104570286D01*
X165362015Y-104630734D01*
X165330083Y-104640420D01*
X165239297Y-104667960D01*
X165111680Y-104680529D01*
X164984062Y-104667960D01*
X164893276Y-104640420D01*
X164861344Y-104630734D01*
X164748255Y-104570286D01*
X164649127Y-104488934D01*
X164567774Y-104389804D01*
X164507326Y-104276715D01*
X164497640Y-104244783D01*
X164470100Y-104153997D01*
X164460680Y-104058352D01*
X164460680Y-103444407D01*
X164470100Y-103348762D01*
X164507325Y-103226048D01*
X164507325Y-103226047D01*
X164539637Y-103165597D01*
X164567775Y-103112954D01*
X164581173Y-103096629D01*
X164649127Y-103013826D01*
X164748256Y-102932474D01*
X164861345Y-102872026D01*
X164903281Y-102859305D01*
X164984063Y-102834800D01*
X165111680Y-102822231D01*
X165239298Y-102834800D01*
G37*
G36*
X167602922Y-102829784D02*
G01*
X167640017Y-102841037D01*
X167674195Y-102859305D01*
X167704161Y-102883899D01*
X167728755Y-102913865D01*
X167747023Y-102948043D01*
X167758276Y-102985138D01*
X167762680Y-103029854D01*
X167762680Y-104472906D01*
X167758276Y-104517622D01*
X167747023Y-104554717D01*
X167728755Y-104588895D01*
X167704161Y-104618861D01*
X167674195Y-104643455D01*
X167640017Y-104661723D01*
X167602922Y-104672976D01*
X167558206Y-104677380D01*
X166665154Y-104677380D01*
X166620438Y-104672976D01*
X166583343Y-104661723D01*
X166549165Y-104643455D01*
X166519199Y-104618861D01*
X166494605Y-104588895D01*
X166476337Y-104554717D01*
X166465084Y-104517622D01*
X166460680Y-104472906D01*
X166460680Y-103029854D01*
X166465084Y-102985138D01*
X166476337Y-102948043D01*
X166494605Y-102913865D01*
X166519199Y-102883899D01*
X166549165Y-102859305D01*
X166583343Y-102841037D01*
X166620438Y-102829784D01*
X166665154Y-102825380D01*
X167558206Y-102825380D01*
X167602922Y-102829784D01*
G37*
G36*
X176820620Y-89712644D02*
G01*
X176972087Y-89742773D01*
X177186105Y-89831422D01*
X177186106Y-89831423D01*
X177378714Y-89960119D01*
X177542521Y-90123926D01*
X177628318Y-90252331D01*
X177671218Y-90316535D01*
X177759867Y-90530553D01*
X177805060Y-90757754D01*
X177805060Y-90989406D01*
X177759867Y-91216607D01*
X177671218Y-91430625D01*
X177671217Y-91430626D01*
X177542521Y-91623234D01*
X177378714Y-91787041D01*
X177250309Y-91872838D01*
X177186105Y-91915738D01*
X176972087Y-92004387D01*
X176820620Y-92034516D01*
X176744887Y-92049580D01*
X176513233Y-92049580D01*
X176437500Y-92034516D01*
X176286033Y-92004387D01*
X176072015Y-91915738D01*
X176007811Y-91872838D01*
X175879406Y-91787041D01*
X175715599Y-91623234D01*
X175586903Y-91430626D01*
X175586902Y-91430625D01*
X175498253Y-91216607D01*
X175453060Y-90989406D01*
X175453060Y-90757754D01*
X175498253Y-90530553D01*
X175586902Y-90316535D01*
X175629802Y-90252331D01*
X175715599Y-90123926D01*
X175879406Y-89960119D01*
X176072014Y-89831423D01*
X176072015Y-89831422D01*
X176286033Y-89742773D01*
X176437500Y-89712644D01*
X176513233Y-89697580D01*
X176744887Y-89697580D01*
X176820620Y-89712644D01*
G37*
G36*
X181900620Y-89712644D02*
G01*
X182052087Y-89742773D01*
X182266105Y-89831422D01*
X182266106Y-89831423D01*
X182458714Y-89960119D01*
X182622521Y-90123926D01*
X182708318Y-90252331D01*
X182751218Y-90316535D01*
X182839867Y-90530553D01*
X182885060Y-90757754D01*
X182885060Y-90989406D01*
X182839867Y-91216607D01*
X182751218Y-91430625D01*
X182751217Y-91430626D01*
X182622521Y-91623234D01*
X182458714Y-91787041D01*
X182330309Y-91872838D01*
X182266105Y-91915738D01*
X182052087Y-92004387D01*
X181900620Y-92034516D01*
X181824887Y-92049580D01*
X181593233Y-92049580D01*
X181517500Y-92034516D01*
X181366033Y-92004387D01*
X181152015Y-91915738D01*
X181087811Y-91872838D01*
X180959406Y-91787041D01*
X180795599Y-91623234D01*
X180666903Y-91430626D01*
X180666902Y-91430625D01*
X180578253Y-91216607D01*
X180533060Y-90989406D01*
X180533060Y-90757754D01*
X180578253Y-90530553D01*
X180666902Y-90316535D01*
X180709802Y-90252331D01*
X180795599Y-90123926D01*
X180959406Y-89960119D01*
X181152014Y-89831423D01*
X181152015Y-89831422D01*
X181366033Y-89742773D01*
X181517500Y-89712644D01*
X181593233Y-89697580D01*
X181824887Y-89697580D01*
X181900620Y-89712644D01*
G37*
G36*
X179344331Y-87271363D02*
G01*
X179482918Y-87298930D01*
X179678737Y-87380041D01*
X179854970Y-87497796D01*
X180004844Y-87647670D01*
X180122599Y-87823903D01*
X180203710Y-88019722D01*
X180245060Y-88227603D01*
X180245060Y-88439557D01*
X180203710Y-88647438D01*
X180122599Y-88843257D01*
X180004844Y-89019490D01*
X179854970Y-89169364D01*
X179678737Y-89287119D01*
X179482918Y-89368230D01*
X179344331Y-89395797D01*
X179275038Y-89409580D01*
X179063082Y-89409580D01*
X178993789Y-89395797D01*
X178855202Y-89368230D01*
X178659383Y-89287119D01*
X178483150Y-89169364D01*
X178333276Y-89019490D01*
X178215521Y-88843257D01*
X178134410Y-88647438D01*
X178093060Y-88439557D01*
X178093060Y-88227603D01*
X178134410Y-88019722D01*
X178215521Y-87823903D01*
X178333276Y-87647670D01*
X178483150Y-87497796D01*
X178659383Y-87380041D01*
X178855202Y-87298930D01*
X178993789Y-87271363D01*
X179063082Y-87257580D01*
X179275038Y-87257580D01*
X179344331Y-87271363D01*
G37*
G36*
X176820620Y-84632644D02*
G01*
X176972087Y-84662773D01*
X177186105Y-84751422D01*
X177186106Y-84751423D01*
X177378714Y-84880119D01*
X177542521Y-85043926D01*
X177628318Y-85172331D01*
X177671218Y-85236535D01*
X177759867Y-85450553D01*
X177805060Y-85677754D01*
X177805060Y-85909406D01*
X177759867Y-86136607D01*
X177671218Y-86350625D01*
X177671217Y-86350626D01*
X177542521Y-86543234D01*
X177378714Y-86707041D01*
X177250309Y-86792838D01*
X177186105Y-86835738D01*
X176972087Y-86924387D01*
X176820620Y-86954516D01*
X176744887Y-86969580D01*
X176513233Y-86969580D01*
X176437500Y-86954516D01*
X176286033Y-86924387D01*
X176072015Y-86835738D01*
X176007811Y-86792838D01*
X175879406Y-86707041D01*
X175715599Y-86543234D01*
X175586903Y-86350626D01*
X175586902Y-86350625D01*
X175498253Y-86136607D01*
X175453060Y-85909406D01*
X175453060Y-85677754D01*
X175498253Y-85450553D01*
X175586902Y-85236535D01*
X175629802Y-85172331D01*
X175715599Y-85043926D01*
X175879406Y-84880119D01*
X176072014Y-84751423D01*
X176072015Y-84751422D01*
X176286033Y-84662773D01*
X176437500Y-84632644D01*
X176513233Y-84617580D01*
X176744887Y-84617580D01*
X176820620Y-84632644D01*
G37*
G36*
X181900620Y-84632644D02*
G01*
X182052087Y-84662773D01*
X182266105Y-84751422D01*
X182266106Y-84751423D01*
X182458714Y-84880119D01*
X182622521Y-85043926D01*
X182708318Y-85172331D01*
X182751218Y-85236535D01*
X182839867Y-85450553D01*
X182885060Y-85677754D01*
X182885060Y-85909406D01*
X182839867Y-86136607D01*
X182751218Y-86350625D01*
X182751217Y-86350626D01*
X182622521Y-86543234D01*
X182458714Y-86707041D01*
X182330309Y-86792838D01*
X182266105Y-86835738D01*
X182052087Y-86924387D01*
X181900620Y-86954516D01*
X181824887Y-86969580D01*
X181593233Y-86969580D01*
X181517500Y-86954516D01*
X181366033Y-86924387D01*
X181152015Y-86835738D01*
X181087811Y-86792838D01*
X180959406Y-86707041D01*
X180795599Y-86543234D01*
X180666903Y-86350626D01*
X180666902Y-86350625D01*
X180578253Y-86136607D01*
X180533060Y-85909406D01*
X180533060Y-85677754D01*
X180578253Y-85450553D01*
X180666902Y-85236535D01*
X180709802Y-85172331D01*
X180795599Y-85043926D01*
X180959406Y-84880119D01*
X181152014Y-84751423D01*
X181152015Y-84751422D01*
X181366033Y-84662773D01*
X181517500Y-84632644D01*
X181593233Y-84617580D01*
X181824887Y-84617580D01*
X181900620Y-84632644D01*
G37*
G36*
X172484800Y-81463900D02*
G01*
X171532800Y-81463900D01*
X171532800Y-80511900D01*
X172484800Y-80511900D01*
X172484800Y-81463900D01*
G37*
G36*
X137525877Y-77302720D02*
G01*
X137606659Y-77327225D01*
X137648595Y-77339946D01*
X137761684Y-77400394D01*
X137860814Y-77481747D01*
X137942166Y-77580875D01*
X138002614Y-77693964D01*
X138012300Y-77725896D01*
X138039840Y-77816682D01*
X138049260Y-77912327D01*
X138049260Y-78526273D01*
X138039840Y-78621918D01*
X138012300Y-78712704D01*
X138002614Y-78744636D01*
X137942166Y-78857725D01*
X137860814Y-78956854D01*
X137761685Y-79038206D01*
X137648596Y-79098654D01*
X137616664Y-79108340D01*
X137525878Y-79135880D01*
X137398260Y-79148449D01*
X137270643Y-79135880D01*
X137179857Y-79108340D01*
X137147925Y-79098654D01*
X137034836Y-79038206D01*
X136935707Y-78956854D01*
X136854356Y-78857727D01*
X136854355Y-78857725D01*
X136793907Y-78744636D01*
X136793905Y-78744633D01*
X136781497Y-78703727D01*
X136756680Y-78621918D01*
X136747260Y-78526273D01*
X136747260Y-77912328D01*
X136756680Y-77816683D01*
X136793905Y-77693969D01*
X136793906Y-77693965D01*
X136854354Y-77580876D01*
X136935707Y-77481746D01*
X137034835Y-77400394D01*
X137147924Y-77339946D01*
X137189860Y-77327225D01*
X137270642Y-77302720D01*
X137398260Y-77290151D01*
X137525877Y-77302720D01*
G37*
G36*
X135525877Y-77302720D02*
G01*
X135606659Y-77327225D01*
X135648595Y-77339946D01*
X135761684Y-77400394D01*
X135860814Y-77481747D01*
X135942166Y-77580875D01*
X136002614Y-77693964D01*
X136012300Y-77725896D01*
X136039840Y-77816682D01*
X136049260Y-77912327D01*
X136049260Y-78526273D01*
X136039840Y-78621918D01*
X136012300Y-78712704D01*
X136002614Y-78744636D01*
X135942166Y-78857725D01*
X135860814Y-78956854D01*
X135761685Y-79038206D01*
X135648596Y-79098654D01*
X135616664Y-79108340D01*
X135525878Y-79135880D01*
X135398260Y-79148449D01*
X135270643Y-79135880D01*
X135179857Y-79108340D01*
X135147925Y-79098654D01*
X135034836Y-79038206D01*
X134935707Y-78956854D01*
X134854356Y-78857727D01*
X134854355Y-78857725D01*
X134793907Y-78744636D01*
X134793905Y-78744633D01*
X134781497Y-78703727D01*
X134756680Y-78621918D01*
X134747260Y-78526273D01*
X134747260Y-77912328D01*
X134756680Y-77816683D01*
X134793905Y-77693969D01*
X134793906Y-77693965D01*
X134854354Y-77580876D01*
X134935707Y-77481746D01*
X135034835Y-77400394D01*
X135147924Y-77339946D01*
X135189860Y-77327225D01*
X135270642Y-77302720D01*
X135398260Y-77290151D01*
X135525877Y-77302720D01*
G37*
G36*
X133889502Y-77297704D02*
G01*
X133926597Y-77308957D01*
X133960775Y-77327225D01*
X133990741Y-77351819D01*
X134015335Y-77381785D01*
X134033603Y-77415963D01*
X134044856Y-77453058D01*
X134049260Y-77497774D01*
X134049260Y-78940826D01*
X134044856Y-78985542D01*
X134033603Y-79022637D01*
X134015335Y-79056815D01*
X133990741Y-79086781D01*
X133960775Y-79111375D01*
X133926597Y-79129643D01*
X133889502Y-79140896D01*
X133844786Y-79145300D01*
X132951734Y-79145300D01*
X132907018Y-79140896D01*
X132869923Y-79129643D01*
X132835745Y-79111375D01*
X132805779Y-79086781D01*
X132781185Y-79056815D01*
X132762917Y-79022637D01*
X132751664Y-78985542D01*
X132747260Y-78940826D01*
X132747260Y-77497774D01*
X132751664Y-77453058D01*
X132762917Y-77415963D01*
X132781185Y-77381785D01*
X132805779Y-77351819D01*
X132835745Y-77327225D01*
X132869923Y-77308957D01*
X132907018Y-77297704D01*
X132951734Y-77293300D01*
X133844786Y-77293300D01*
X133889502Y-77297704D01*
G37*
G36*
X176553887Y-75332536D02*
G01*
X176790653Y-75430608D01*
X176790655Y-75430609D01*
X177003739Y-75572987D01*
X177184953Y-75754201D01*
X177327332Y-75967287D01*
X177425404Y-76204053D01*
X177475400Y-76455401D01*
X177475400Y-76711679D01*
X177425404Y-76963027D01*
X177327332Y-77199793D01*
X177327331Y-77199795D01*
X177184953Y-77412879D01*
X177003739Y-77594093D01*
X176790655Y-77736471D01*
X176790654Y-77736472D01*
X176790653Y-77736472D01*
X176553887Y-77834544D01*
X176302539Y-77884540D01*
X176046261Y-77884540D01*
X175794913Y-77834544D01*
X175558147Y-77736472D01*
X175558146Y-77736472D01*
X175558145Y-77736471D01*
X175345061Y-77594093D01*
X175163847Y-77412879D01*
X175021469Y-77199795D01*
X175021468Y-77199793D01*
X174923396Y-76963027D01*
X174873400Y-76711679D01*
X174873400Y-76455401D01*
X174923396Y-76204053D01*
X175021468Y-75967287D01*
X175163847Y-75754201D01*
X175345061Y-75572987D01*
X175558145Y-75430609D01*
X175558147Y-75430608D01*
X175794913Y-75332536D01*
X176046261Y-75282540D01*
X176302539Y-75282540D01*
X176553887Y-75332536D01*
G37*
G36*
X162050495Y-73260560D02*
G01*
X162114258Y-73266840D01*
X162205044Y-73294380D01*
X162236976Y-73304066D01*
X162350065Y-73364514D01*
X162449194Y-73445866D01*
X162530546Y-73544995D01*
X162590994Y-73658084D01*
X162590995Y-73658088D01*
X162628220Y-73780802D01*
X162640789Y-73908420D01*
X162628220Y-74036038D01*
X162600680Y-74126824D01*
X162590994Y-74158756D01*
X162530546Y-74271845D01*
X162449194Y-74370974D01*
X162350065Y-74452326D01*
X162236976Y-74512774D01*
X162205044Y-74522460D01*
X162114258Y-74550000D01*
X162050495Y-74556280D01*
X162018614Y-74559420D01*
X161404666Y-74559420D01*
X161372785Y-74556280D01*
X161309022Y-74550000D01*
X161218236Y-74522460D01*
X161186304Y-74512774D01*
X161073215Y-74452326D01*
X160974086Y-74370974D01*
X160892734Y-74271845D01*
X160832286Y-74158756D01*
X160822600Y-74126824D01*
X160795060Y-74036038D01*
X160782491Y-73908420D01*
X160795060Y-73780802D01*
X160832285Y-73658088D01*
X160832286Y-73658084D01*
X160892734Y-73544995D01*
X160974086Y-73445866D01*
X161073215Y-73364514D01*
X161186304Y-73304066D01*
X161218236Y-73294380D01*
X161309022Y-73266840D01*
X161372785Y-73260560D01*
X161404666Y-73257420D01*
X162018614Y-73257420D01*
X162050495Y-73260560D01*
G37*
G36*
X162050495Y-71260560D02*
G01*
X162114258Y-71266840D01*
X162205044Y-71294380D01*
X162236976Y-71304066D01*
X162350065Y-71364514D01*
X162449194Y-71445866D01*
X162530546Y-71544995D01*
X162590994Y-71658084D01*
X162590995Y-71658088D01*
X162628220Y-71780802D01*
X162640789Y-71908420D01*
X162628220Y-72036038D01*
X162600680Y-72126824D01*
X162590994Y-72158756D01*
X162530546Y-72271845D01*
X162449194Y-72370974D01*
X162350065Y-72452326D01*
X162236976Y-72512774D01*
X162205044Y-72522460D01*
X162114258Y-72550000D01*
X162050495Y-72556280D01*
X162018614Y-72559420D01*
X161404666Y-72559420D01*
X161372785Y-72556280D01*
X161309022Y-72550000D01*
X161218236Y-72522460D01*
X161186304Y-72512774D01*
X161073215Y-72452326D01*
X160974086Y-72370974D01*
X160892734Y-72271845D01*
X160832286Y-72158756D01*
X160822600Y-72126824D01*
X160795060Y-72036038D01*
X160782491Y-71908420D01*
X160795060Y-71780802D01*
X160832285Y-71658088D01*
X160832286Y-71658084D01*
X160892734Y-71544995D01*
X160974086Y-71445866D01*
X161073215Y-71364514D01*
X161186304Y-71304066D01*
X161218236Y-71294380D01*
X161309022Y-71266840D01*
X161372785Y-71260560D01*
X161404666Y-71257420D01*
X162018614Y-71257420D01*
X162050495Y-71260560D01*
G37*
G36*
X135443987Y-68967296D02*
G01*
X135680753Y-69065368D01*
X135680755Y-69065369D01*
X135893839Y-69207747D01*
X136075053Y-69388961D01*
X136217432Y-69602047D01*
X136315504Y-69838813D01*
X136365500Y-70090161D01*
X136365500Y-70346439D01*
X136315504Y-70597787D01*
X136217432Y-70834553D01*
X136217431Y-70834555D01*
X136075053Y-71047639D01*
X135893839Y-71228853D01*
X135680755Y-71371231D01*
X135680754Y-71371232D01*
X135680753Y-71371232D01*
X135443987Y-71469304D01*
X135192639Y-71519300D01*
X134936361Y-71519300D01*
X134685013Y-71469304D01*
X134448247Y-71371232D01*
X134448246Y-71371232D01*
X134448245Y-71371231D01*
X134235161Y-71228853D01*
X134053947Y-71047639D01*
X133911569Y-70834555D01*
X133911568Y-70834553D01*
X133813496Y-70597787D01*
X133763500Y-70346439D01*
X133763500Y-70090161D01*
X133813496Y-69838813D01*
X133911568Y-69602047D01*
X134053947Y-69388961D01*
X134235161Y-69207747D01*
X134448245Y-69065369D01*
X134448247Y-69065368D01*
X134685013Y-68967296D01*
X134936361Y-68917300D01*
X135192639Y-68917300D01*
X135443987Y-68967296D01*
G37*
G36*
X162477882Y-69261824D02*
G01*
X162514977Y-69273077D01*
X162549155Y-69291345D01*
X162579121Y-69315939D01*
X162603715Y-69345905D01*
X162621983Y-69380083D01*
X162633236Y-69417178D01*
X162637640Y-69461894D01*
X162637640Y-70354946D01*
X162633236Y-70399662D01*
X162621983Y-70436757D01*
X162603715Y-70470935D01*
X162579121Y-70500901D01*
X162549155Y-70525495D01*
X162514977Y-70543763D01*
X162477882Y-70555016D01*
X162433166Y-70559420D01*
X160990114Y-70559420D01*
X160945398Y-70555016D01*
X160908303Y-70543763D01*
X160874125Y-70525495D01*
X160844159Y-70500901D01*
X160819565Y-70470935D01*
X160801297Y-70436757D01*
X160790044Y-70399662D01*
X160785640Y-70354946D01*
X160785640Y-69461894D01*
X160790044Y-69417178D01*
X160801297Y-69380083D01*
X160819565Y-69345905D01*
X160844159Y-69315939D01*
X160874125Y-69291345D01*
X160908303Y-69273077D01*
X160945398Y-69261824D01*
X160990114Y-69257420D01*
X162433166Y-69257420D01*
X162477882Y-69261824D01*
G37*
G36*
X160273512Y-64103927D02*
G01*
X160422812Y-64133624D01*
X160586784Y-64201544D01*
X160734354Y-64300147D01*
X160859853Y-64425646D01*
X160958456Y-64573216D01*
X161026376Y-64737188D01*
X161061000Y-64911259D01*
X161061000Y-65088741D01*
X161026376Y-65262812D01*
X160958456Y-65426784D01*
X160859853Y-65574354D01*
X160734354Y-65699853D01*
X160586784Y-65798456D01*
X160422812Y-65866376D01*
X160273512Y-65896073D01*
X160248742Y-65901000D01*
X160071258Y-65901000D01*
X160046488Y-65896073D01*
X159897188Y-65866376D01*
X159733216Y-65798456D01*
X159585646Y-65699853D01*
X159460147Y-65574354D01*
X159361544Y-65426784D01*
X159293624Y-65262812D01*
X159259000Y-65088741D01*
X159259000Y-64911259D01*
X159293624Y-64737188D01*
X159361544Y-64573216D01*
X159460147Y-64425646D01*
X159585646Y-64300147D01*
X159733216Y-64201544D01*
X159897188Y-64133624D01*
X160046488Y-64103927D01*
X160071258Y-64099000D01*
X160248742Y-64099000D01*
X160273512Y-64103927D01*
G37*
G36*
X157733512Y-64103927D02*
G01*
X157882812Y-64133624D01*
X158046784Y-64201544D01*
X158194354Y-64300147D01*
X158319853Y-64425646D01*
X158418456Y-64573216D01*
X158486376Y-64737188D01*
X158521000Y-64911259D01*
X158521000Y-65088741D01*
X158486376Y-65262812D01*
X158418456Y-65426784D01*
X158319853Y-65574354D01*
X158194354Y-65699853D01*
X158046784Y-65798456D01*
X157882812Y-65866376D01*
X157733512Y-65896073D01*
X157708742Y-65901000D01*
X157531258Y-65901000D01*
X157506488Y-65896073D01*
X157357188Y-65866376D01*
X157193216Y-65798456D01*
X157045646Y-65699853D01*
X156920147Y-65574354D01*
X156821544Y-65426784D01*
X156753624Y-65262812D01*
X156719000Y-65088741D01*
X156719000Y-64911259D01*
X156753624Y-64737188D01*
X156821544Y-64573216D01*
X156920147Y-64425646D01*
X157045646Y-64300147D01*
X157193216Y-64201544D01*
X157357188Y-64133624D01*
X157506488Y-64103927D01*
X157531258Y-64099000D01*
X157708742Y-64099000D01*
X157733512Y-64103927D01*
G37*
G36*
X155193512Y-64103927D02*
G01*
X155342812Y-64133624D01*
X155506784Y-64201544D01*
X155654354Y-64300147D01*
X155779853Y-64425646D01*
X155878456Y-64573216D01*
X155946376Y-64737188D01*
X155981000Y-64911259D01*
X155981000Y-65088741D01*
X155946376Y-65262812D01*
X155878456Y-65426784D01*
X155779853Y-65574354D01*
X155654354Y-65699853D01*
X155506784Y-65798456D01*
X155342812Y-65866376D01*
X155193512Y-65896073D01*
X155168742Y-65901000D01*
X154991258Y-65901000D01*
X154966488Y-65896073D01*
X154817188Y-65866376D01*
X154653216Y-65798456D01*
X154505646Y-65699853D01*
X154380147Y-65574354D01*
X154281544Y-65426784D01*
X154213624Y-65262812D01*
X154179000Y-65088741D01*
X154179000Y-64911259D01*
X154213624Y-64737188D01*
X154281544Y-64573216D01*
X154380147Y-64425646D01*
X154505646Y-64300147D01*
X154653216Y-64201544D01*
X154817188Y-64133624D01*
X154966488Y-64103927D01*
X154991258Y-64099000D01*
X155168742Y-64099000D01*
X155193512Y-64103927D01*
G37*
G36*
X152653512Y-64103927D02*
G01*
X152802812Y-64133624D01*
X152966784Y-64201544D01*
X153114354Y-64300147D01*
X153239853Y-64425646D01*
X153338456Y-64573216D01*
X153406376Y-64737188D01*
X153441000Y-64911259D01*
X153441000Y-65088741D01*
X153406376Y-65262812D01*
X153338456Y-65426784D01*
X153239853Y-65574354D01*
X153114354Y-65699853D01*
X152966784Y-65798456D01*
X152802812Y-65866376D01*
X152653512Y-65896073D01*
X152628742Y-65901000D01*
X152451258Y-65901000D01*
X152426488Y-65896073D01*
X152277188Y-65866376D01*
X152113216Y-65798456D01*
X151965646Y-65699853D01*
X151840147Y-65574354D01*
X151741544Y-65426784D01*
X151673624Y-65262812D01*
X151639000Y-65088741D01*
X151639000Y-64911259D01*
X151673624Y-64737188D01*
X151741544Y-64573216D01*
X151840147Y-64425646D01*
X151965646Y-64300147D01*
X152113216Y-64201544D01*
X152277188Y-64133624D01*
X152426488Y-64103927D01*
X152451258Y-64099000D01*
X152628742Y-64099000D01*
X152653512Y-64103927D01*
G37*
G36*
X150901000Y-65901000D02*
G01*
X149099000Y-65901000D01*
X149099000Y-64099000D01*
X150901000Y-64099000D01*
X150901000Y-65901000D01*
G37*
M02*
